{
  "annotations": {
    "list": [
      {
        "builtIn": 1,
        "datasource": {
          "type": "grafana",
          "uid": "-- Grafana --"
        },
        "enable": true,
        "hide": true,
        "iconColor": "rgba(0, 211, 255, 1)",
        "name": "Annotations & Alerts",
        "target": {
          "limit": 100,
          "matchAny": false,
          "tags": [],
          "type": "dashboard"
        },
        "type": "dashboard"
      }
    ]
  },
  "editable": true,
  "fiscalYearStartMonth": 0,
  "graphTooltip": 0,
  "id": 55,
  "iteration": 1700807058825,
  "links": [],
  "liveNow": false,
  "panels": [
    {
      "datasource": {
        "type": "prometheus",
        "uid": "${dataSource}"
      },
      "fieldConfig": {
        "defaults": {
          "color": {
            "mode": "thresholds"
          },
          "custom": {
            "align": "center",
            "displayMode": "auto",
            "inspect": false
          },
          "mappings": [],
          "thresholds": {
            "mode": "absolute",
            "steps": [
              {
                "color": "green",
                "value": null
              },
              {
                "color": "red",
                "value": 80
              }
            ]
          }
        },
        "overrides": [
          {
            "matcher": {
              "id": "byName",
              "options": "PowerState"
            },
            "properties": [
              {
                "id": "mappings",
                "value": [
                  {
                    "options": {
                      "1": {
                        "index": 0,
                        "text": "offEnvOther"
                      },
                      "2": {
                        "index": 1,
                        "text": "on"
                      },
                      "3": {
                        "index": 2,
                        "text": "offAdmin"
                      },
                      "4": {
                        "index": 3,
                        "text": "offDenied"
                      },
                      "5": {
                        "index": 4,
                        "text": "offEnvPower"
                      },
                      "6": {
                        "index": 5,
                        "text": "offEnvTemp"
                      },
                      "7": {
                        "index": 6,
                        "text": "offEnvFan"
                      },
                      "8": {
                        "index": 7,
                        "text": "failed"
                      },
                      "9": {
                        "index": 8,
                        "text": "onButFanFail"
                      },
                      "10": {
                        "index": 9,
                        "text": "offCooling"
                      },
                      "11": {
                        "index": 10,
                        "text": "offConnectorRating"
                      },
                      "12": {
                        "index": 11,
                        "text": "onButInlinePowerFail"
                      }
                    },
                    "type": "value"
                  }
                ]
              }
            ]
          },
          {
            "matcher": {
              "id": "byName",
              "options": "Current"
            },
            "properties": [
              {
                "id": "unit",
                "value": "amp"
              }
            ]
          },
          {
            "matcher": {
              "id": "byName",
              "options": "Uptime"
            },
            "properties": [
              {
                "id": "unit",
                "value": "dtdhms"
              }
            ]
          }
        ]
      },
      "gridPos": {
        "h": 3,
        "w": 24,
        "x": 0,
        "y": 0
      },
      "id": 130,
      "options": {
        "footer": {
          "fields": "",
          "reducer": [
            "sum"
          ],
          "show": false
        },
        "showHeader": true
      },
      "pluginVersion": "8.5.3",
      "targets": [
        {
          "datasource": {
            "type": "prometheus",
            "uid": "${dataSource}"
          },
          "editorMode": "code",
          "exemplar": false,
          "expr": "sysDescr{instance=\"$instance\"}",
          "format": "table",
          "hide": false,
          "instant": true,
          "range": false,
          "refId": "C"
        },
        {
          "datasource": {
            "type": "prometheus",
            "uid": "prometheus"
          },
          "editorMode": "code",
          "exemplar": false,
          "expr": "cefcFRUPowerOperStatus{instance=\"$instance\"}",
          "format": "table",
          "instant": true,
          "range": false,
          "refId": "A"
        },
        {
          "datasource": {
            "type": "prometheus",
            "uid": "${dataSource}"
          },
          "editorMode": "code",
          "exemplar": false,
          "expr": "cefcFRUCurrent{instance=\"$instance\"}",
          "format": "table",
          "hide": false,
          "instant": true,
          "range": false,
          "refId": "B"
        },
        {
          "datasource": {
            "type": "prometheus",
            "uid": "${dataSource}"
          },
          "editorMode": "code",
          "exemplar": false,
          "expr": "sysUpTime{instance=\"$instance\"} / 100",
          "format": "table",
          "hide": false,
          "instant": true,
          "range": false,
          "refId": "D"
        },
        {
          "datasource": {
            "type": "prometheus",
            "uid": "${dataSource}"
          },
          "editorMode": "code",
          "exemplar": false,
          "expr": "sysObjectID{job=~\"$job\"}",
          "format": "table",
          "hide": false,
          "instant": true,
          "range": false,
          "refId": "E"
        }
      ],
      "title": "$instance - Peripherals",
      "transformations": [
        {
          "id": "seriesToColumns",
          "options": {
            "byField": "instance"
          }
        },
        {
          "id": "filterFieldsByName",
          "options": {
            "include": {
              "names": [
                "sysDescr",
                "Value #A",
                "Value #B",
                "Value #D",
                "sysObjectID",
                "instance"
              ]
            }
          }
        },
        {
          "id": "organize",
          "options": {
            "excludeByName": {},
            "indexByName": {
              "Value #A": 2,
              "Value #B": 3,
              "Value #D": 1,
              "instance": 0,
              "sysDescr": 4,
              "sysObjectID": 5
            },
            "renameByName": {
              "Value #A": "PowerState",
              "Value #B": "Current",
              "Value #D": "Uptime"
            }
          }
        }
      ],
      "type": "table"
    },
    {
      "collapsed": false,
      "gridPos": {
        "h": 1,
        "w": 24,
        "x": 0,
        "y": 3
      },
      "id": 25,
      "panels": [],
      "title": "$instance - Overview",
      "type": "row"
    },
    {
      "datasource": {
        "type": "prometheus",
        "uid": "prometheus"
      },
      "fieldConfig": {
        "defaults": {
          "color": {
            "mode": "thresholds"
          },
          "custom": {
            "align": "center",
            "displayMode": "color-text",
            "inspect": false
          },
          "mappings": [],
          "thresholds": {
            "mode": "absolute",
            "steps": [
              {
                "color": "text",
                "value": null
              }
            ]
          }
        },
        "overrides": [
          {
            "matcher": {
              "id": "byName",
              "options": "Type"
            },
            "properties": [
              {
                "id": "mappings",
                "value": [
                  {
                    "options": {
                      "6": {
                        "index": 0,
                        "text": "Ethernet"
                      },
                      "24": {
                        "index": 1,
                        "text": "Loopback"
                      }
                    },
                    "type": "value"
                  }
                ]
              }
            ]
          },
          {
            "matcher": {
              "id": "byName",
              "options": "HighSpeed"
            },
            "properties": [
              {
                "id": "unit",
                "value": "bps"
              }
            ]
          },
          {
            "matcher": {
              "id": "byName",
              "options": "OperStatus"
            },
            "properties": [
              {
                "id": "mappings",
                "value": [
                  {
                    "options": {
                      "0": {
                        "color": "super-light-red",
                        "index": 0,
                        "text": "Down"
                      },
                      "1": {
                        "color": "dark-green",
                        "index": 1,
                        "text": "Up"
                      },
                      "2": {
                        "color": "light-green",
                        "index": 2,
                        "text": "Up/Dormant"
                      },
                      "3": {
                        "color": "super-light-orange",
                        "index": 3,
                        "text": "LowerLayerDown"
                      }
                    },
                    "type": "value"
                  }
                ]
              }
            ]
          },
          {
            "matcher": {
              "id": "byName",
              "options": "Connector Status"
            },
            "properties": [
              {
                "id": "mappings",
                "value": [
                  {
                    "options": {
                      "1": {
                        "index": 0,
                        "text": "Disconnected"
                      },
                      "2": {
                        "index": 1,
                        "text": "Connected"
                      }
                    },
                    "type": "value"
                  }
                ]
              }
            ]
          }
        ]
      },
      "gridPos": {
        "h": 12,
        "w": 16,
        "x": 0,
        "y": 4
      },
      "id": 68,
      "options": {
        "footer": {
          "fields": "",
          "reducer": [
            "sum"
          ],
          "show": false
        },
        "showHeader": true,
        "sortBy": []
      },
      "pluginVersion": "8.5.3",
      "targets": [
        {
          "datasource": {
            "type": "prometheus",
            "uid": "prometheus"
          },
          "editorMode": "code",
          "exemplar": false,
          "expr": "ifName{instance=\"$instance\"}",
          "format": "table",
          "instant": true,
          "range": false,
          "refId": "A"
        },
        {
          "datasource": {
            "type": "prometheus",
            "uid": "prometheus"
          },
          "editorMode": "code",
          "exemplar": false,
          "expr": "ifConnectorPresent{instance=\"$instance\"}",
          "format": "table",
          "hide": false,
          "instant": true,
          "range": false,
          "refId": "B"
        },
        {
          "datasource": {
            "type": "prometheus",
            "uid": "prometheus"
          },
          "editorMode": "code",
          "exemplar": false,
          "expr": "ifMtu{instance=\"$instance\"}",
          "format": "table",
          "hide": false,
          "instant": true,
          "range": false,
          "refId": "C"
        },
        {
          "datasource": {
            "type": "prometheus",
            "uid": "prometheus"
          },
          "editorMode": "code",
          "exemplar": false,
          "expr": "ifSpeed{instance=\"$instance\"}",
          "format": "table",
          "hide": false,
          "instant": true,
          "range": false,
          "refId": "D"
        },
        {
          "datasource": {
            "type": "prometheus",
            "uid": "prometheus"
          },
          "editorMode": "code",
          "exemplar": false,
          "expr": "ifPhysAddress{instance=\"$instance\"}",
          "format": "table",
          "hide": false,
          "instant": true,
          "range": false,
          "refId": "E"
        },
        {
          "datasource": {
            "type": "prometheus",
            "uid": "prometheus"
          },
          "editorMode": "code",
          "exemplar": false,
          "expr": "ifOperStatus{instance=\"$instance\"}",
          "format": "table",
          "hide": false,
          "instant": true,
          "range": false,
          "refId": "G"
        },
        {
          "datasource": {
            "type": "prometheus",
            "uid": "prometheus"
          },
          "editorMode": "code",
          "exemplar": false,
          "expr": "ifType{instance=\"$instance\"}",
          "format": "table",
          "hide": false,
          "instant": true,
          "range": false,
          "refId": "H"
        }
      ],
      "title": "$instance - Interface Details",
      "transformations": [
        {
          "id": "seriesToColumns",
          "options": {
            "byField": "ifIndex"
          }
        },
        {
          "id": "filterFieldsByName",
          "options": {
            "include": {
              "names": [
                "ifName",
                "Value #C",
                "Value #D",
                "ifPhysAddress",
                "Value #G",
                "Value #H",
                "Value #B"
              ]
            }
          }
        },
        {
          "id": "organize",
          "options": {
            "excludeByName": {},
            "indexByName": {
              "Value #B": 3,
              "Value #C": 5,
              "Value #D": 6,
              "Value #G": 4,
              "Value #H": 2,
              "ifName": 0,
              "ifPhysAddress": 1
            },
            "renameByName": {
              "Value #B": "Connector Status",
              "Value #C": "MTU",
              "Value #D": "HighSpeed",
              "Value #F": "Unicast Packets",
              "Value #G": "OperStatus",
              "Value #H": "Type",
              "ifIndex": ""
            }
          }
        }
      ],
      "type": "table"
    },
    {
      "datasource": {
        "type": "prometheus",
        "uid": "${dataSource}"
      },
      "fieldConfig": {
        "defaults": {
          "color": {
            "mode": "thresholds"
          },
          "custom": {
            "align": "center",
            "displayMode": "auto",
            "inspect": false
          },
          "mappings": [],
          "noValue": "n/a",
          "thresholds": {
            "mode": "absolute",
            "steps": [
              {
                "color": "text",
                "value": null
              }
            ]
          }
        },
        "overrides": [
          {
            "matcher": {
              "id": "byName",
              "options": "State"
            },
            "properties": [
              {
                "id": "mappings",
                "value": [
                  {
                    "options": {
                      "1": {
                        "color": "super-light-green",
                        "index": 0,
                        "text": "ok"
                      }
                    },
                    "type": "value"
                  }
                ]
              },
              {
                "id": "custom.displayMode",
                "value": "color-text"
              }
            ]
          }
        ]
      },
      "gridPos": {
        "h": 12,
        "w": 8,
        "x": 16,
        "y": 4
      },
      "id": 48,
      "options": {
        "cellHeight": "sm",
        "footer": {
          "countRows": false,
          "fields": "",
          "reducer": [
            "sum"
          ],
          "show": false
        },
        "showHeader": true
      },
      "pluginVersion": "8.5.3",
      "targets": [
        {
          "datasource": {
            "type": "prometheus",
            "uid": "${dataSource}"
          },
          "editorMode": "code",
          "exemplar": false,
          "expr": "entPhysicalDescr{instance=~\"$instance\"}",
          "format": "table",
          "instant": true,
          "range": false,
          "refId": "A"
        },
        {
          "datasource": {
            "type": "prometheus",
            "uid": "${dataSource}"
          },
          "editorMode": "code",
          "exemplar": false,
          "expr": "entPhySensorUnitsDisplay{instance=~\"$instance\"}",
          "format": "table",
          "hide": false,
          "instant": true,
          "range": false,
          "refId": "B"
        },
        {
          "datasource": {
            "type": "prometheus",
            "uid": "${dataSource}"
          },
          "editorMode": "code",
          "exemplar": false,
          "expr": "entPhySensorValue{instance=~\"$instance\"}",
          "format": "table",
          "hide": false,
          "instant": true,
          "range": false,
          "refId": "C"
        }
      ],
      "title": "Sensor List - $instance",
      "transformations": [
        {
          "id": "seriesToColumns",
          "options": {
            "byField": "entPhysicalIndex"
          }
        },
        {
          "id": "filterFieldsByName",
          "options": {
            "include": {
              "names": [
                "entPhysicalDescr",
                "entPhySensorUnitsDisplay",
                "Value #B",
                "Value #C"
              ]
            }
          }
        },
        {
          "id": "organize",
          "options": {
            "excludeByName": {},
            "indexByName": {
              "Value #A": 2,
              "Value #B": 3,
              "entPhySensorUnitsDisplay": 4,
              "entPhysicalDescr": 0,
              "entPhysicalIndex 1": 1
            },
            "renameByName": {
              "Value": "State",
              "Value #A": "Sensor State",
              "Value #B": "State",
              "Value #C": "Value",
              "entPhySensorUnitsDisplay": "Unit Type",
              "entPhysicalDescr": "Name",
              "entPhysicalIndex": "Index"
            }
          }
        }
      ],
      "type": "table"
    },
    {
      "collapsed": false,
      "gridPos": {
        "h": 1,
        "w": 24,
        "x": 0,
        "y": 16
      },
      "id": 23,
      "panels": [],
      "title": "$instance - Layer 1 - Hardware",
      "type": "row"
    },
    {
      "datasource": {
        "type": "prometheus",
        "uid": "${dataSource}"
      },
      "fieldConfig": {
        "defaults": {
          "color": {
            "mode": "palette-classic"
          },
          "custom": {
            "axisLabel": "",
            "axisPlacement": "auto",
            "barAlignment": 0,
            "drawStyle": "line",
            "fillOpacity": 0,
            "gradientMode": "none",
            "hideFrom": {
              "legend": false,
              "tooltip": false,
              "viz": false
            },
            "lineInterpolation": "linear",
            "lineWidth": 1,
            "pointSize": 5,
            "scaleDistribution": {
              "type": "linear"
            },
            "showPoints": "auto",
            "spanNulls": false,
            "stacking": {
              "group": "A",
              "mode": "none"
            },
            "thresholdsStyle": {
              "mode": "off"
            }
          },
          "mappings": [],
          "thresholds": {
            "mode": "absolute",
            "steps": [
              {
                "color": "green",
                "value": null
              },
              {
                "color": "red",
                "value": 80
              }
            ]
          },
          "unit": "percent"
        },
        "overrides": []
      },
      "gridPos": {
        "h": 7,
        "w": 8,
        "x": 0,
        "y": 17
      },
      "id": 45,
      "maxPerRow": 4,
      "options": {
        "legend": {
          "calcs": [
            "lastNotNull"
          ],
          "displayMode": "list",
          "placement": "right",
          "showLegend": true
        },
        "tooltip": {
          "mode": "multi",
          "sort": "none"
        }
      },
      "repeatDirection": "h",
      "targets": [
        {
          "datasource": {
            "type": "prometheus",
            "uid": "${dataSource}"
          },
          "editorMode": "code",
          "expr": "cpmCPUTotal5secRev{instance=\"$instance\"}",
          "hide": false,
          "instant": false,
          "legendFormat": "CPU ID {{cpmCPUTotalIndex}}",
          "range": true,
          "refId": "A"
        }
      ],
      "title": "CPU",
      "transformations": [],
      "type": "timeseries"
    },
    {
      "datasource": {
        "type": "prometheus",
        "uid": "prometheus"
      },
      "fieldConfig": {
        "defaults": {
          "color": {
            "mode": "palette-classic"
          },
          "custom": {
            "axisLabel": "",
            "axisPlacement": "auto",
            "barAlignment": 0,
            "drawStyle": "line",
            "fillOpacity": 0,
            "gradientMode": "none",
            "hideFrom": {
              "legend": false,
              "tooltip": false,
              "viz": false
            },
            "lineInterpolation": "linear",
            "lineWidth": 1,
            "pointSize": 5,
            "scaleDistribution": {
              "type": "linear"
            },
            "showPoints": "never",
            "spanNulls": false,
            "stacking": {
              "group": "A",
              "mode": "none"
            },
            "thresholdsStyle": {
              "mode": "off"
            }
          },
          "decimals": 1,
          "mappings": [],
          "thresholds": {
            "mode": "absolute",
            "steps": [
              {
                "color": "green",
                "value": null
              },
              {
                "color": "red",
                "value": 80
              }
            ]
          },
          "unit": "deckbytes"
        },
        "overrides": []
      },
      "gridPos": {
        "h": 7,
        "w": 8,
        "x": 8,
        "y": 17
      },
      "id": 47,
      "options": {
        "legend": {
          "calcs": [
            "lastNotNull"
          ],
          "displayMode": "list",
          "placement": "right",
          "showLegend": true
        },
        "tooltip": {
          "mode": "single",
          "sort": "none"
        }
      },
      "pluginVersion": "10.0.3",
      "targets": [
        {
          "datasource": {
            "type": "prometheus",
            "uid": "prometheus"
          },
          "editorMode": "code",
          "expr": "cpmCPUMemoryUsed{instance=\"$instance\"} + cpmCPUMemoryFree{instance=\"$instance\"} \r\n",
          "hide": false,
          "instant": false,
          "legendFormat": "Total",
          "range": true,
          "refId": "C"
        },
        {
          "datasource": {
            "type": "prometheus",
            "uid": "prometheus"
          },
          "editorMode": "code",
          "expr": "cpmCPUMemoryUsed{instance=\"$instance\"} \r\n",
          "hide": false,
          "instant": false,
          "legendFormat": "Total",
          "range": true,
          "refId": "A"
        }
      ],
      "title": "RAM",
      "transformations": [],
      "type": "timeseries"
    },
    {
      "datasource": {
        "type": "prometheus",
        "uid": "${dataSource}"
      },
      "fieldConfig": {
        "defaults": {
          "color": {
            "mode": "palette-classic"
          },
          "custom": {
            "axisLabel": "",
            "axisPlacement": "auto",
            "axisSoftMax": 100,
            "axisSoftMin": 0,
            "fillOpacity": 80,
            "gradientMode": "none",
            "hideFrom": {
              "legend": false,
              "tooltip": false,
              "viz": false
            },
            "lineWidth": 1,
            "scaleDistribution": {
              "type": "linear"
            }
          },
          "decimals": 1,
          "mappings": [],
          "thresholds": {
            "mode": "absolute",
            "steps": [
              {
                "color": "green",
                "value": null
              },
              {
                "color": "red",
                "value": 80
              }
            ]
          },
          "unit": "percent"
        },
        "overrides": []
      },
      "gridPos": {
        "h": 7,
        "w": 8,
        "x": 16,
        "y": 17
      },
      "id": 128,
      "options": {
        "barRadius": 0,
        "barWidth": 0.97,
        "groupWidth": 0.7,
        "legend": {
          "calcs": [
            "lastNotNull"
          ],
          "displayMode": "list",
          "placement": "right"
        },
        "orientation": "auto",
        "showValue": "auto",
        "stacking": "none",
        "tooltip": {
          "mode": "single",
          "sort": "none"
        },
        "xTickLabelRotation": 0,
        "xTickLabelSpacing": 0
      },
      "repeatDirection": "h",
      "targets": [
        {
          "datasource": {
            "type": "prometheus",
            "uid": "prometheus"
          },
          "editorMode": "code",
          "exemplar": false,
          "expr": "( \r\n  1 - \r\n  ciscoFlashPartitionFreeSpace{ciscoFlashDeviceIndex=~\"$flashIndex\"} \r\n  / \r\n  ciscoFlashPartitionSize{ciscoFlashDeviceIndex=~\"$flashIndex\"}\r\n) * 100\r\n\r\n* on (instnace, ciscoFlashDeviceIndex) group_right\r\n\r\nciscoFlashDeviceName{ciscoFlashDeviceIndex=~\"$flashIndex\"}",
          "format": "time_series",
          "hide": false,
          "instant": true,
          "legendFormat": "{{ciscoFlashDeviceName}}",
          "range": false,
          "refId": "B"
        }
      ],
      "title": "Partition Usage",
      "transformations": [],
      "type": "barchart"
    },
    {
      "collapsed": false,
      "gridPos": {
        "h": 1,
        "w": 24,
        "x": 0,
        "y": 24
      },
      "id": 66,
      "panels": [],
      "title": "$instance - Layer 2 - Interfaces",
      "type": "row"
    },
    {
      "datasource": {
        "type": "prometheus",
        "uid": "${dataSource}"
      },
      "fieldConfig": {
        "defaults": {
          "color": {
            "mode": "palette-classic"
          },
          "custom": {
            "axisLabel": "",
            "axisPlacement": "auto",
            "barAlignment": 0,
            "drawStyle": "line",
            "fillOpacity": 6,
            "gradientMode": "none",
            "hideFrom": {
              "legend": false,
              "tooltip": false,
              "viz": false
            },
            "lineInterpolation": "linear",
            "lineWidth": 1,
            "pointSize": 5,
            "scaleDistribution": {
              "type": "linear"
            },
            "showPoints": "auto",
            "spanNulls": false,
            "stacking": {
              "group": "A",
              "mode": "none"
            },
            "thresholdsStyle": {
              "mode": "off"
            }
          },
          "mappings": [],
          "thresholds": {
            "mode": "absolute",
            "steps": [
              {
                "color": "green"
              }
            ]
          }
        },
        "overrides": [
          {
            "matcher": {
              "id": "byFrameRefID",
              "options": "C"
            },
            "properties": [
              {
                "id": "custom.transform",
                "value": "negative-Y"
              }
            ]
          },
          {
            "matcher": {
              "id": "byFrameRefID",
              "options": "D"
            },
            "properties": [
              {
                "id": "custom.transform",
                "value": "negative-Y"
              }
            ]
          }
        ]
      },
      "gridPos": {
        "h": 8,
        "w": 12,
        "x": 0,
        "y": 25
      },
      "id": 77,
      "options": {
        "legend": {
          "calcs": [
            "lastNotNull"
          ],
          "displayMode": "table",
          "placement": "right"
        },
        "tooltip": {
          "mode": "single",
          "sort": "none"
        }
      },
      "targets": [
        {
          "datasource": {
            "type": "prometheus",
            "uid": "${dataSource}"
          },
          "editorMode": "code",
          "expr": "ifName{instance=\"$instance\"} * on (ifIndex, instance) group_left(ifInUcastPkts) ifInUcastPkts{instance=\"$instance\"} != 0",
          "hide": false,
          "legendFormat": "{{ifName}}",
          "range": true,
          "refId": "A"
        },
        {
          "datasource": {
            "type": "prometheus",
            "uid": "${dataSource}"
          },
          "editorMode": "code",
          "expr": "ifName{instance=\"$instance\"} * on (ifIndex, instance) group_left(ifOutUcastPkts) ifInNUcastPkts{instance=\"$instance\"}!= 0",
          "hide": false,
          "legendFormat": "{{ifName}}",
          "range": true,
          "refId": "B"
        },
        {
          "datasource": {
            "type": "prometheus",
            "uid": "${dataSource}"
          },
          "editorMode": "code",
          "expr": "ifName{instance=\"$instance\"} * on (ifIndex, instance) group_left(ifOutUcastPkts) ifOutUcastPkts{instance=\"$instance\"} != 0",
          "hide": false,
          "legendFormat": "{{ifName}}",
          "range": true,
          "refId": "C"
        },
        {
          "datasource": {
            "type": "prometheus",
            "uid": "${dataSource}"
          },
          "editorMode": "code",
          "expr": "ifName{instance=\"$instance\"} * on (ifIndex, instance) group_left(ifOutUcastPkts) ifOutNUcastPkts{instance=\"$instance\"}!= 0",
          "hide": false,
          "legendFormat": "{{ifName}}",
          "range": true,
          "refId": "D"
        }
      ],
      "title": "$instance - Packets All Interfaces",
      "type": "timeseries"
    },
    {
      "datasource": {
        "type": "prometheus",
        "uid": "${dataSource}"
      },
      "fieldConfig": {
        "defaults": {
          "color": {
            "mode": "palette-classic"
          },
          "custom": {
            "axisLabel": "",
            "axisPlacement": "auto",
            "barAlignment": 0,
            "drawStyle": "line",
            "fillOpacity": 14,
            "gradientMode": "none",
            "hideFrom": {
              "legend": false,
              "tooltip": false,
              "viz": false
            },
            "lineInterpolation": "linear",
            "lineWidth": 1,
            "pointSize": 5,
            "scaleDistribution": {
              "type": "linear"
            },
            "showPoints": "never",
            "spanNulls": false,
            "stacking": {
              "group": "A",
              "mode": "none"
            },
            "thresholdsStyle": {
              "mode": "off"
            }
          },
          "mappings": [],
          "thresholds": {
            "mode": "absolute",
            "steps": [
              {
                "color": "green"
              },
              {
                "color": "red",
                "value": 80
              }
            ]
          },
          "unit": "Kbits"
        },
        "overrides": [
          {
            "matcher": {
              "id": "byFrameRefID",
              "options": "B"
            },
            "properties": [
              {
                "id": "custom.transform",
                "value": "negative-Y"
              }
            ]
          }
        ]
      },
      "gridPos": {
        "h": 8,
        "w": 12,
        "x": 12,
        "y": 25
      },
      "id": 99,
      "options": {
        "legend": {
          "calcs": [
            "lastNotNull"
          ],
          "displayMode": "list",
          "placement": "right"
        },
        "tooltip": {
          "mode": "single",
          "sort": "none"
        }
      },
      "targets": [
        {
          "datasource": {
            "type": "prometheus",
            "uid": "prometheus"
          },
          "editorMode": "code",
          "expr": "ifName{instance=\"$instance\"} * on(instance, ifIndex) group_left rate(ifInUcastPkts{instance=\"$instance\"}[$__rate_interval])",
          "legendFormat": "{{ifName}}",
          "range": true,
          "refId": "A"
        },
        {
          "datasource": {
            "type": "prometheus",
            "uid": "prometheus"
          },
          "editorMode": "code",
          "expr": "ifName{instance=\"$instance\"} * on(instance, ifIndex) group_left rate(ifOutUcastPkts{instance=\"$instance\"}[$__rate_interval]) ",
          "hide": false,
          "legendFormat": "{{ifName}}",
          "range": true,
          "refId": "B"
        }
      ],
      "title": "$instance - Unicast In/Out Packet Rate",
      "type": "timeseries"
    },
    {
      "datasource": {
        "type": "prometheus",
        "uid": "${dataSource}"
      },
      "fieldConfig": {
        "defaults": {
          "color": {
            "mode": "palette-classic"
          },
          "custom": {
            "axisLabel": "",
            "axisPlacement": "auto",
            "barAlignment": 0,
            "drawStyle": "line",
            "fillOpacity": 0,
            "gradientMode": "none",
            "hideFrom": {
              "legend": false,
              "tooltip": false,
              "viz": false
            },
            "lineInterpolation": "linear",
            "lineWidth": 1,
            "pointSize": 5,
            "scaleDistribution": {
              "type": "linear"
            },
            "showPoints": "auto",
            "spanNulls": false,
            "stacking": {
              "group": "A",
              "mode": "none"
            },
            "thresholdsStyle": {
              "mode": "off"
            }
          },
          "mappings": [],
          "thresholds": {
            "mode": "absolute",
            "steps": [
              {
                "color": "green"
              },
              {
                "color": "red",
                "value": 80
              }
            ]
          }
        },
        "overrides": [
          {
            "matcher": {
              "id": "byFrameRefID",
              "options": "B"
            },
            "properties": [
              {
                "id": "custom.transform",
                "value": "negative-Y"
              }
            ]
          }
        ]
      },
      "gridPos": {
        "h": 8,
        "w": 12,
        "x": 0,
        "y": 33
      },
      "id": 97,
      "options": {
        "legend": {
          "calcs": [
            "lastNotNull"
          ],
          "displayMode": "list",
          "placement": "right"
        },
        "tooltip": {
          "mode": "single",
          "sort": "none"
        }
      },
      "targets": [
        {
          "datasource": {
            "type": "prometheus",
            "uid": "prometheus"
          },
          "editorMode": "code",
          "expr": "ifName{instance=~\"$instance\"} * on (ifIndex, instance) group_left(inErrors) rate(ifInErrors{instance=~\"$instance\"}[$__range]) ",
          "legendFormat": "{{ifName}}",
          "range": true,
          "refId": "A"
        },
        {
          "datasource": {
            "type": "prometheus",
            "uid": "prometheus"
          },
          "editorMode": "code",
          "expr": "ifName{instance=~\"$instance\"} * on (ifIndex, instance) group_left(outErrors) rate(ifOutErrors{instance=~\"$instance\"}[$__range]) ",
          "hide": false,
          "legendFormat": "{{ifName}}",
          "range": true,
          "refId": "B"
        }
      ],
      "title": "$instance - Interface IN/OUT Error Rate",
      "type": "timeseries"
    },
    {
      "datasource": {
        "type": "prometheus",
        "uid": "${dataSource}"
      },
      "fieldConfig": {
        "defaults": {
          "color": {
            "mode": "palette-classic"
          },
          "custom": {
            "axisLabel": "",
            "axisPlacement": "auto",
            "barAlignment": 0,
            "drawStyle": "line",
            "fillOpacity": 0,
            "gradientMode": "none",
            "hideFrom": {
              "legend": false,
              "tooltip": false,
              "viz": false
            },
            "lineInterpolation": "linear",
            "lineWidth": 1,
            "pointSize": 5,
            "scaleDistribution": {
              "type": "linear"
            },
            "showPoints": "auto",
            "spanNulls": false,
            "stacking": {
              "group": "A",
              "mode": "none"
            },
            "thresholdsStyle": {
              "mode": "off"
            }
          },
          "mappings": [],
          "thresholds": {
            "mode": "absolute",
            "steps": [
              {
                "color": "green"
              },
              {
                "color": "red",
                "value": 80
              }
            ]
          }
        },
        "overrides": [
          {
            "matcher": {
              "id": "byFrameRefID",
              "options": "B"
            },
            "properties": [
              {
                "id": "custom.transform",
                "value": "negative-Y"
              }
            ]
          }
        ]
      },
      "gridPos": {
        "h": 8,
        "w": 12,
        "x": 12,
        "y": 33
      },
      "id": 100,
      "options": {
        "legend": {
          "calcs": [
            "lastNotNull"
          ],
          "displayMode": "list",
          "placement": "right"
        },
        "tooltip": {
          "mode": "single",
          "sort": "none"
        }
      },
      "targets": [
        {
          "datasource": {
            "type": "prometheus",
            "uid": "prometheus"
          },
          "editorMode": "code",
          "expr": "ifName{instance=~\"$instance\"} * on (ifIndex, instance) group_left(inErrors) rate(ifInDiscards{instance=~\"$instance\"}[$__range]) ",
          "legendFormat": "{{ifName}}",
          "range": true,
          "refId": "A"
        },
        {
          "datasource": {
            "type": "prometheus",
            "uid": "prometheus"
          },
          "editorMode": "code",
          "expr": "ifName{instance=~\"$instance\"} * on (ifIndex, instance) group_left(outErrors) rate(ifOutDiscards{instance=~\"$instance\"}[$__range]) ",
          "hide": false,
          "legendFormat": "{{ifName}}",
          "range": true,
          "refId": "B"
        }
      ],
      "title": "$instance - Interface IN/OUT Discards Rate",
      "type": "timeseries"
    }
  ],
  "refresh": "",
  "schemaVersion": 36,
  "style": "dark",
  "tags": [],
  "templating": {
    "list": [
      {
        "current": {
          "selected": false,
          "text": "Prometheus",
          "value": "Prometheus"
        },
        "hide": 0,
        "includeAll": false,
        "label": "dataSource",
        "multi": false,
        "name": "dataSource",
        "options": [],
        "query": "prometheus",
        "refresh": 1,
        "regex": "",
        "skipUrlSync": false,
        "type": "datasource"
      },
      {
        "current": {
          "selected": false,
          "text": "snmp_nexus",
          "value": "snmp_nexus"
        },
        "datasource": {
          "type": "prometheus",
          "uid": "${dataSource}"
        },
        "definition": "label_values(job)",
        "hide": 0,
        "includeAll": false,
        "label": "job",
        "multi": false,
        "name": "job",
        "options": [],
        "query": {
          "query": "label_values(job)",
          "refId": "StandardVariableQuery"
        },
        "refresh": 1,
        "regex": "/.*nexus.*/",
        "skipUrlSync": false,
        "sort": 0,
        "type": "query"
      },
      {
        "current": {
          "selected": false,
          "text": "nexus.optimus.local",
          "value": "nexus.optimus.local"
        },
        "datasource": {
          "type": "prometheus",
          "uid": "prometheus"
        },
        "definition": "label_values(up{job=\"$job\"},instance)",
        "hide": 0,
        "includeAll": false,
        "label": "instance",
        "multi": false,
        "name": "instance",
        "options": [],
        "query": {
          "query": "label_values(up{job=\"$job\"},instance)",
          "refId": "StandardVariableQuery"
        },
        "refresh": 1,
        "regex": "",
        "skipUrlSync": false,
        "sort": 0,
        "type": "query"
      },
      {
        "current": {
          "selected": false,
          "text": "All",
          "value": "$__all"
        },
        "datasource": {
          "type": "prometheus",
          "uid": "${dataSource}"
        },
        "definition": "label_values(ciscoFlashDeviceName{instance=\"$instance\"},ciscoFlashDeviceIndex)",
        "hide": 0,
        "includeAll": true,
        "label": "flashIndex",
        "multi": false,
        "name": "flashIndex",
        "options": [],
        "query": {
          "query": "label_values(ciscoFlashDeviceName{instance=\"$instance\"},ciscoFlashDeviceIndex)",
          "refId": "StandardVariableQuery"
        },
        "refresh": 1,
        "regex": "",
        "skipUrlSync": false,
        "sort": 0,
        "type": "query"
      },
      {
        "current": {
          "selected": false,
          "text": "bootflash",
          "value": "bootflash"
        },
        "datasource": {
          "type": "prometheus",
          "uid": "${dataSource}"
        },
        "definition": "label_values(ciscoFlashDeviceName{instance=\"$instance\",ciscoFlashDeviceIndex=~\"$flashIndex\"},ciscoFlashDeviceName)",
        "hide": 0,
        "includeAll": false,
        "label": "flashName",
        "multi": false,
        "name": "flashName",
        "options": [],
        "query": {
          "query": "label_values(ciscoFlashDeviceName{instance=\"$instance\",ciscoFlashDeviceIndex=~\"$flashIndex\"},ciscoFlashDeviceName)",
          "refId": "StandardVariableQuery"
        },
        "refresh": 1,
        "regex": "",
        "skipUrlSync": false,
        "sort": 0,
        "type": "query"
      }
    ]
  },
  "time": {
    "from": "now-24h",
    "to": "now"
  },
  "timepicker": {},
  "timezone": "",
  "title": "Nexus - POC 1",
  "uid": "b3aJcYnIz1",
  "version": 3,
  "weekStart": ""
}